---
http_interactions:
- request:
    method: get
    uri: https://api.pexels.com/v1/search?per_page=1&query=Denver,%20Co
    body:
      encoding: US-ASCII
      string: ''
    headers:
      User-Agent:
      - Faraday v1.4.1
      Content-Type:
      - application/json
      Authorization:
      - 563492ad6f917000010000015655a8e3d1664f73bb73a5353bbbd3b5
      Accept-Encoding:
      - gzip;q=1.0,deflate;q=0.6,identity;q=0.3
      Accept:
      - "*/*"
  response:
    status:
      code: 200
      message: OK
    headers:
      Date:
      - Fri, 07 May 2021 01:48:14 GMT
      Content-Type:
      - application/json; charset=utf-8
      Content-Length:
      - '441'
      Connection:
      - keep-alive
      Set-Cookie:
      - __cf_bm=0b463b359ee4e8b9723f84e39e701a03e4bb695d-1620352094-1800-AVyyMp7sj3oCAlkZuPMs5hCZQhIBUGNCaYjpAErnvhlpm006p5jjmFxPeoXZ8yEk0/EzimaCA4z3V1fQnTBLI+I=;
        path=/; expires=Fri, 07-May-21 02:18:14 GMT; domain=.pexels.com; HttpOnly;
        Secure; SameSite=None
      - __cf_bm=dfae963f10def1e4f08c2f40d2d94ba61557cf04-1620352010-1800-AVNmBLbPBRbqokHgHRO3jxEEZOcRnLSjNWgl4oCmyyGTeOfr+wTm6eSg2XKPOFIWg5lYO21m44ZPauclU3lynNU=;
        path=/; expires=Fri, 07-May-21 02:16:50 GMT; domain=.pexels.com; HttpOnly;
        Secure; SameSite=None
      - __cfduid=d17af9d4d021954fe206fc99275afb6da1620352094; expires=Sun, 06-Jun-21
        01:48:14 GMT; path=/; domain=.pexels.com; HttpOnly; SameSite=Lax; Secure
      - __cfduid=dbb27bae3fdd9d9fcaea50ffb8e9a2d691620352010; expires=Sun, 06-Jun-21
        01:46:50 GMT; path=/; domain=.pexels.com; HttpOnly; SameSite=Lax; Secure
      Alt-Svc:
      - h3-27=":443"; ma=86400, h3-28=":443"; ma=86400, h3-29=":443"; ma=86400
      Cache-Control:
      - max-age=0, private, must-revalidate
      Cf-Cache-Status:
      - DYNAMIC
      Cf-Request-Id:
      - '09e61be8cb0000557a15a2d000000001'
      Expect-Ct:
      - max-age=604800, report-uri="https://report-uri.cloudflare.com/cdn-cgi/beacon/expect-ct"
      Vary:
      - Origin
      X-Frame-Options:
      - ALLOWALL
      X-Ratelimit-Limit:
      - '20000'
      X-Ratelimit-Remaining:
      - '19934'
      X-Ratelimit-Reset:
      - '1621827429'
      X-Request-Id:
      - db58dfe5-ff49-40e0-af9e-c8be915ea1b9
      X-Runtime:
      - '0.063037'
      X-Server:
      - master
      X-Tyk-Cached-Response:
      - '1'
      Server:
      - cloudflare
      Cf-Ray:
      - 64b6c8ee1d6c557a-ORD
    body:
      encoding: ASCII-8BIT
      string: '{"page":1,"per_page":1,"photos":[{"id":3184423,"width":4004,"height":6000,"url":"https://www.pexels.com/photo/photo-of-people-holding-each-other-s-hands-3184423/","photographer":"fauxels","photographer_url":"https://www.pexels.com/@fauxels","photographer_id":1281351,"avg_color":"#8B7D77","src":{"original":"https://images.pexels.com/photos/3184423/pexels-photo-3184423.jpeg","large2x":"https://images.pexels.com/photos/3184423/pexels-photo-3184423.jpeg?auto=compress\u0026cs=tinysrgb\u0026dpr=2\u0026h=650\u0026w=940","large":"https://images.pexels.com/photos/3184423/pexels-photo-3184423.jpeg?auto=compress\u0026cs=tinysrgb\u0026h=650\u0026w=940","medium":"https://images.pexels.com/photos/3184423/pexels-photo-3184423.jpeg?auto=compress\u0026cs=tinysrgb\u0026h=350","small":"https://images.pexels.com/photos/3184423/pexels-photo-3184423.jpeg?auto=compress\u0026cs=tinysrgb\u0026h=130","portrait":"https://images.pexels.com/photos/3184423/pexels-photo-3184423.jpeg?auto=compress\u0026cs=tinysrgb\u0026fit=crop\u0026h=1200\u0026w=800","landscape":"https://images.pexels.com/photos/3184423/pexels-photo-3184423.jpeg?auto=compress\u0026cs=tinysrgb\u0026fit=crop\u0026h=627\u0026w=1200","tiny":"https://images.pexels.com/photos/3184423/pexels-photo-3184423.jpeg?auto=compress\u0026cs=tinysrgb\u0026dpr=1\u0026fit=crop\u0026h=200\u0026w=280"},"liked":false}],"total_results":2049,"next_page":"https://api.pexels.com/v1/search/?page=2\u0026per_page=1\u0026query=Denver%2C+Co"}'
  recorded_at: Fri, 07 May 2021 01:48:14 GMT
recorded_with: VCR 6.0.0
